    {"angellist_url": "https://angel.co/jobs?startup_id=32689",
    "created_at": "2013-05-07T16:04:54Z",
    "currency_code": "USD",
    "equity_cliff": "1.0",
    "equity_max": "0.018",
    "equity_min": "0.006",
    "equity_vest": "4.0",
    "id": 11950,
    "salary_max": 165000,
    "salary_min": 85000,
    "startup": {"angellist_url": "https://angel.co/yelp",
     "community_profile": "False",
     "company_url": "http://yelp.com",
     "created_at": "2012-01-17T23:28:54Z",
     "follower_count": 632,
     "hidden": "False",
     "high_concept": "Connecting people with great local businesses",
     "id": 32689,
     "logo_url": "https://s3.amazonaws.com/photos.angel.co/startups/i/32689-8d123cdd413d5c19be8bf8cc777acd69-medium_jpg.jpg?buster=1326842934",
     "name": "Yelp",
     "product_desc": "This year we're focused on three things: \n\nAmazing features specifically for the creators of Yelp's unmatched local review content - namely our incredible community.\n\nInternational expansion - bringing Yelp to the world. \n\nClosing the loop with local businesses - Yelp Platform and more tools to help businesses see the value they're getting from Yelp. ",
     "quality": 10,
     "thumb_url": "https://s3.amazonaws.com/photos.angel.co/startups/i/32689-8d123cdd413d5c19be8bf8cc777acd69-thumb_jpg.jpg?buster=1326842934",
     "updated_at": "2014-02-05T23:06:47Z"},
    "tags": [{"angellist_url": "https://angel.co/python",
      "display_name": "Python",
      "id": 14775,
      "name": "python",
      "tag_type": "SkillTag"},
     {"angellist_url": "https://angel.co/java",
      "display_name": "Java",
      "id": 14780,
      "name": "java",
      "tag_type": "SkillTag"},
     {"angellist_url": "https://angel.co/hadoop",
      "display_name": "Hadoop",
      "id": 15605,
      "name": "hadoop",
      "tag_type": "SkillTag"},
     {"angellist_url": "https://angel.co/machine-learning-1",
      "display_name": "Machine Learning",
      "id": 15609,
      "name": "machine learning",
      "tag_type": "SkillTag"},
     {"angellist_url": "https://angel.co/nosql",
      "display_name": "noSQL",
      "id": 15843,
      "name": "nosql",
      "tag_type": "SkillTag"},
     {"angellist_url": "https://angel.co/mysql-1",
      "display_name": "MySQL",
      "id": 16309,
      "name": "mysql",
      "tag_type": "SkillTag"},
     {"angellist_url": "https://angel.co/lucene",
      "display_name": "Lucene",
      "id": 27146,
      "name": "lucene",
      "tag_type": "SkillTag"},
     {"angellist_url": "https://angel.co/information-retrieval",
      "display_name": "Information Retrieval",
      "id": 36281,
      "name": "information retrieval",
      "tag_type": "SkillTag"},
     {"angellist_url": "https://angel.co/san-francisco",
      "display_name": "San Francisco",
      "id": 1692,
      "name": "san francisco",
      "tag_type": "LocationTag"},
     {"angellist_url": "https://angel.co/developer",
      "display_name": "Developer",
      "id": 14726,
      "name": "developer",
      "tag_type": "RoleTag"}],
    "title": "Software Engineer - Data Infrastructure",
    "updated_at": "2013-05-07T23:59:20Z"}